post.utf8.md
…
td

## # A tibble: 50 x 13
##       id   jan    fev   mar   abr     mai   jun   jul   ago   set   out
##    <int> <dbl>  <dbl> <dbl> <dbl>   <dbl> <dbl> <dbl> <dbl> <dbl> <dbl>
##  1     1 1.48   1.49   8.29 3.34   0.662   4.51  6.54 4.09   4.14 2.31 
##  2     2 2.09   1.16   8.10 1.61   0.138   5.68  9.23 3.37   3.53 1.19 
##  3     3 1.34   1.82   9.58 1.79   0.907   3.93  8.11 2.23   4.58 3.39 
##  4     4 1.35  -0.179  7.98 0.517  1.66    5.24  6.77 2.11   2.21 0.480
##  5     5 1.58   1.72   9.79 3.12   2.37    3.53  8.06 2.47   5.93 1.75 
##  6     6 0.245  0.252 10.1  2.46   1.55    6.14  6.30 4.95   4.58 0.524
##  7     7 3.14   1.07   9.36 1.85   2.22    4.33  6.48 0.912  3.13 1.03 
##  8     8 2.04   1.96   9.66 1.37  -0.0135  4.05  5.50 3.08   4.13 1.46 
##  9     9 1.34   0.890  9.00 3.21   1.58    4.43  7.10 1.14   3.30 0.458
## 10    10 1.55   2.81   6.71 1.69  -0.216   4.52  7.44 3.45   4.55 1.76 
## # ... with 40 more rows, and 2 more variables: nov <dbl>, dez <dbl>

Use a imaginao, finja que cada valor de id  uma pessoa, cada coluna um ms e cada clula o resultado de um exame qualquer. Este  o tpico caso de dados no formato largo, ou seja, a linha representa uma observao mas note que as colunas representam a mesma varivel: o ms. No formato tido como ideal deveria haver uma coluna id e uma coluna ms e no 12 colunas de uma mesma varivel.

Para forar os dados a assumirem o formato longo basta utilizar a funo gather, nesta funo voc fornece o nome de duas colunas a serem criadas: a key e a value. Alm disso deve-se informar as colunas que se tem interesse em empilhar.

td_gat <- td %>% gather(key = 'mes', value = 'valor', jan:dez)
td_gat

## # A tibble: 600 x 3
##       id mes   valor
##    <int> <chr> <dbl>
##  1     1 jan   1.48 
##  2     2 jan   2.09 
##  3     3 jan   1.34 
##  4     4 jan   1.35 
##  5     5 jan   1.58 
##  6     6 jan   0.245
##  7     7 jan   3.14 
##  8     8 jan   2.04 
##  9     9 jan   1.34 
## 10    10 jan   1.55 
## # ... with 590 more rows

Para fazer com que os dados retornem ao formato original basta utilizar a funo spread:

td_gat %>% spread(key=mes, value = valor)

## # A tibble: 50 x 13
##       id   abr   ago   dez    fev   jan   jul   jun     mai   mar   nov
##    <int> <dbl> <dbl> <dbl>  <dbl> <dbl> <dbl> <dbl>   <dbl> <dbl> <dbl>
##  1     1 3.34  4.09   3.42  1.49  1.48   6.54  4.51  0.662   8.29  6.62
##  2     2 1.61  3.37   3.86  1.16  2.09   9.23  5.68  0.138   8.10  8.46
##  3     3 1.79  2.23   2.82  1.82  1.34   8.11  3.93  0.907   9.58  9.12
##  4     4 0.517 2.11   3.64 -0.179 1.35   6.77  5.24  1.66    7.98  7.60
##  5     5 3.12  2.47   4.18  1.72  1.58   8.06  3.53  2.37    9.79 10.6 
##  6     6 2.46  4.95   2.88  0.252 0.245  6.30  6.14  1.55   10.1   7.96
##  7     7 1.85  0.912  5.08  1.07  3.14   6.48  4.33  2.22    9.36  9.09
##  8     8 1.37  3.08   3.55  1.96  2.04   5.50  4.05 -0.0135  9.66  6.63
##  9     9 3.21  1.14   6.10  0.890 1.34   7.10  4.43  1.58    9.00  8.32
## 10    10 1.69  3.45   2.58  2.81  1.55   7.44  4.52 -0.216   6.71  9.06
## # ... with 40 more rows, and 2 more variables: out <dbl>, set <dbl>
…
names(select4)

## [1] "Agriculture"      "Examination"      "Education"       
## [4] "Catholic"         "Infant.Mortality"

3.3 Ordenar a base

Para ordenao com base em uma coluna o dplyr dispe da funo arrange():

df <- tibble(letras = letters,
             valor = rnorm(length(letters)))
df

## # A tibble: 26 x 2
##    letras  valor
##    <chr>   <dbl>
##  1 a      -0.441
##  2 b      -0.974
##  3 c       0.892
##  4 d      -0.149
##  5 e      -1.99 
##  6 f      -1.22 
##  7 g       0.609
##  8 h       2.45 
##  9 i      -0.150
## 10 j      -0.585
## # ... with 16 more rows

df %>%  arrange(desc(letras))

## # A tibble: 26 x 2
##    letras  valor
##    <chr>   <dbl>
##  1 z       1.46 
##  2 y       0.231
##  3 x      -0.990
##  4 w       0.154
##  5 v      -0.853
##  6 u      -0.303
##  7 t       2.28 
##  8 s      -1.58 
##  9 r      -0.337
## 10 q       0.678
## # ... with 16 more rows

df %>% arrange(letras)

## # A tibble: 26 x 2
##    letras  valor
##    <chr>   <dbl>
##  1 a      -0.441
##  2 b      -0.974
##  3 c       0.892
##  4 d      -0.149
##  5 e      -1.99 
##  6 f      -1.22 
##  7 g       0.609
##  8 h       2.45 
##  9 i      -0.150
## 10 j      -0.585
## # ... with 16 more rows

3.4 Criar/modificar colunas

A criao e modificao de colunas pode ser feita com a funo mutate(), com ela  possvel:

Sobrescreve uma coluna.

Criar uma nova coluna.

Criar diversas colunas no mesmo mutate.

df2 <- tibble(col1 = rnorm(50), col2 = rpois(50, 1))
df2

## # A tibble: 50 x 2
##      col1  col2
##     <dbl> <int>
##  1  1.49      0
##  2  0.382     1
##  3  1.16      2
##  4 -0.924     2
##  5 -0.869     0
##  6 -0.103     2
##  7 -0.838     1
##  8  0.109     0
##  9 -0.275     2
## 10  0.853     2
## # ... with 40 more rows

3.4.1 Sobrescreve uma coluna

mutate1 <- df2 %>% mutate(col2 = letters[1:10] %>% rep(5))
df2[,2]

## # A tibble: 50 x 1
##     col2
##    <int>
##  1     0
##  2     1
##  3     2
##  4     2
##  5     0
##  6     2
##  7     1
##  8     0
##  9     2
## 10     2
## # ... with 40 more rows

mutate1[,2]

## # A tibble: 50 x 1
##    col2 
##    <chr>
##  1 a    
##  2 b    
##  3 c    
##  4 d    
##  5 e    
##  6 f    
##  7 g    
##  8 h    
##  9 i    
## 10 j    
## # ... with 40 more rows

3.4.2 Criar uma nova coluna

mutate2 <- df2 %>% mutate(col3 = 1:nrow(df2))
df2

## # A tibble: 50 x 2
##      col1  col2
##     <dbl> <int>
##  1  1.49      0
##  2  0.382     1
##  3  1.16      2
##  4 -0.924     2
##  5 -0.869     0
##  6 -0.103     2
##  7 -0.838     1
##  8  0.109     0
##  9 -0.275     2
## 10  0.853     2
## # ... with 40 more rows

mutate2

## # A tibble: 50 x 3
##      col1  col2  col3
##     <dbl> <int> <int>
##  1  1.49      0     1
##  2  0.382     1     2
##  3  1.16      2     3
##  4 -0.924     2     4
##  5 -0.869     0     5
##  6 -0.103     2     6
##  7 -0.838     1     7
##  8  0.109     0     8
##  9 -0.275     2     9
## 10  0.853     2    10
## # ... with 40 more rows

3.4.3 Criar diversas colunas no mesmo mutate.

mutate3 <- df2 %>%  mutate( col3 = col1 + col2,
                            col4 = 1:nrow(df2),
                            col5 = col1 * 10)

df2

## # A tibble: 50 x 2
##      col1  col2
##     <dbl> <int>
##  1  1.49      0
##  2  0.382     1
##  3  1.16      2
##  4 -0.924     2
##  5 -0.869     0
##  6 -0.103     2
##  7 -0.838     1
##  8  0.109     0
##  9 -0.275     2
## 10  0.853     2
## # ... with 40 more rows

mutate3

## # A tibble: 50 x 5
##      col1  col2   col3  col4   col5
##     <dbl> <int>  <dbl> <int>  <dbl>
##  1  1.49      0  1.49      1  14.9 
##  2  0.382     1  1.38      2   3.82
##  3  1.16      2  3.16      3  11.6 
##  4 -0.924     2  1.08      4  -9.24
##  5 -0.869     0 -0.869     5  -8.69
##  6 -0.103     2  1.90      6  -1.03
##  7 -0.838     1  0.162     7  -8.38
##  8  0.109     0  0.109     8   1.09
##  9 -0.275     2  1.72      9  -2.75
## 10  0.853     2  2.85     10   8.53
## # ... with 40 more rows
…
